3,きぃちゃん
3,コスモロード
3,アニメ声
3,少年
2,キチガイカラー
2,黄色
2,元気
2,京都
2,ゲーム
2,アニメ
2,ちょっとえっち
2,シナモン
2,オレンジ
1,硝子
1,プロジェクションマッピング
1,しょたこんガチ勢
1,メンヘラ
1,めんへらぴんく
1,暴れ
1,破片
1,水面
1,鴨川の留学生
1,一途な精神異常
1,単刀直入
1,率直
1,爆弾
1,しづね
1,留年
1,楽
1,芸大生
1,原付
1,キリミ
1,きゃわボイス
1,泣き虫
1,方言
1,テキパキ
1,内気
1,責任感
1,おしゃべり
1,カラフル
1,ビッグボイス
1,ハイトーン
1,マイナス思考
1,プログラミング
1,絵
1,ストレート
1,プロジェクション
1,ドタドタ
1,優しい
1,スマホ
1,キャラクター
1,気にしい
1,金平糖
1,ひらめき
1,ボーカル
1,たまにテンション爆上げしたときのあにゃにゃにゃー的な声(？)
1,二輪車
1,音楽
1,よく通る声
1,大谷育江
1,パーカー
1,ヘルメット
1,バイク
1,粒ガム型携帯
1,漫画
1,きりみが好き
1,えんがわ
1,電子ウサギ（P）
1,小宇宙（コスモ）
1,切身
1,シュール可愛いもの好きそう？
1,オープンに話す
1,真面目
1,いつもいろいろ模索してる
1,にぎやか
1,人が好き
1,黄緑
1,蛍光色
1,思考
1,彩り
1,パステル
1,ハツラツ
1,白
1,丸
1,迷走
1,転換
1,小柄
1,うさぎ
1,大声
1,面白い
1,同い年
1,ショートヘア
1,かわいい
1,しゅっとした顔
1,M2
1,友達
1,多感
1,綺麗
1,オシャレ
1,デザイン
1,キチガイ
1,お喋り
1,バルカン半島
1,日本人体型
1,オタク感覚はある
1,o(｀ω´ )o
1,理数脳
1,さらけだし
1,荷物大きい
1,子供
1,次世代
1,市場感覚ない
1,Twitter上手い
1,親に謎の負い目
1,短気
1,技術好き
1,タスク処理好き
1,漠然とした憧れ抱き
1,長期的な要領の悪さ
1,損
1,抑圧された子供時代
1,整頓したがり
1,母親うるさい
1,謎の選択
1,しゅっしゅっ
1,よく走る
1,搾乳
1,歌上手い
1,きちがいからー
1,しょたこん
1,肉食
1,歌姫
1,ひまわり
1,包容力
1,きりみちゃん
1,キス
1,職人
1,苦労
1,サバサバしてる
1,オシャレ魔道士
1,マスコット
1,プログラミングガール
1,人懐っこい
1,気前がいい
1,おおらか
1,ユニーク
1,気がつく
1,無謀
1,不発弾
1,パズル好き
1,水カレー
1,部屋が実家
1,過保護
1,やりたがり
1,謎のエロキャラアピール
1,リンガーハット
1,高校自慢
1,単純作業
1,ハイセンス
1,無防備
1,飛行機乗り遅れ
1,高音
1,思わせぶりがち
1,女友達いない
1,悲哀
1,世話焼き
1,盛るの下手
1,時間にルーズ
1,保守的な人生計画
1,ノーガード
1,先輩面
1,遅刻
1,大垣
1,超音波
1,メンタル
1,岐阜
1,まとめ好き
1,証明写真に不向き
1,親の欲望押し付けられてそう
1,一人遊び
1,一人っ子
1,核家族
1,ファイブポケット
1,自分探し
1,自分探しこじらせ民
1,親のプライド背負い
1,しねころすbot
1,非リア
1,鍵
1,夢見がち
1,自虐
1,シナモロール
1,ロコペリ
1,フェチ
1,悲愛
